-------------------------------------------------------------------------------
Test set: pl.piomin.services.redis.RedisTransactionRepositoryTest
-------------------------------------------------------------------------------
Tests run: 3, Failures: 0, Errors: 0, Skipped: 0, Time elapsed: 2.667 s - in pl.piomin.services.redis.RedisTransactionRepositoryTest
