/home/dell/Documents/redis/sample-spring-redis/src/main/java/pl/piomin/services/redis/repository/CustomerRepository.java
/home/dell/Documents/redis/sample-spring-redis/src/main/java/pl/piomin/services/redis/model/Customer.java
/home/dell/Documents/redis/sample-spring-redis/src/main/java/pl/piomin/services/redis/model/Transaction.java
/home/dell/Documents/redis/sample-spring-redis/src/main/java/pl/piomin/services/redis/model/Account.java
/home/dell/Documents/redis/sample-spring-redis/src/main/java/pl/piomin/services/redis/web/CustomerController.java
/home/dell/Documents/redis/sample-spring-redis/src/main/java/pl/piomin/services/redis/config/SampleSpringRedisConfiguration.java
/home/dell/Documents/redis/sample-spring-redis/src/main/java/pl/piomin/services/redis/SampleSpringRedisApplication.java
/home/dell/Documents/redis/sample-spring-redis/src/main/java/pl/piomin/services/redis/web/TransactionController.java
/home/dell/Documents/redis/sample-spring-redis/src/main/java/pl/piomin/services/redis/repository/TransactionRepository.java
